…
The variables are:

-   trade: bilateral trade
-   log\_dist: log of distance
-   cntg: contiguity
-   lang: common language
-   clny: colonial relation
-   exp\_year/imp\_year: exporter/importer time fixed effects

The data for this model consists in a 28,152 x 7 data frame with 5
numeric and 2 categorical columns. This results in a 28,152 x 23 design
matrix:

    #> # A tibble: 28,152 x 23
    #> # Groups:   importer, year [414]
    #>    exporter importer pair_id  year  trade   dist  cntg  lang  clny log_trade
    #>    <chr>    <chr>      <int> <int>  <dbl>  <dbl> <int> <int> <int>     <dbl>
    #>  1 ARG      AUS            1  1986  27.8  12045.     0     0     0      3.32
    #>  2 ARG      AUT            2  1986   3.56 11751.     0     0     0      1.27
    #>  3 ARG      BEL            4  1986  96.1  11305.     0     0     0      4.57
    #>  4 ARG      BGR            3  1986   3.13 12116.     0     0     0      1.14
    #>  5 ARG      BOL            6  1986  52.7   1866.     1     1     0      3.97
    #>  6 ARG      BRA            8  1986 405.    2392.     1     0     0      6.00
    #>  7 ARG      CAN           10  1986  48.3   9391.     0     0     0      3.88
    #>  8 ARG      CHE           12  1986  23.6  11233.     0     0     0      3.16
    #>  9 ARG      CHL           14  1986 109.    1157.     1     1     0      4.69
    #> 10 ARG      CHN           17  1986 161.   19110.     0     0     0      5.08
    #> # … with 28,142 more rows, and 13 more variables: log_dist <dbl>, y <dbl>,
    #> #   log_y <dbl>, e <dbl>, log_e <dbl>, total_e <dbl>, remoteness_exp <dbl>,
    #> #   log_remoteness_exp <dbl>, total_y <dbl>, remoteness_imp <dbl>,
    #> #   log_remoteness_imp <dbl>, exp_year <chr>, imp_year <chr>
…
