Efficient Fitting of Linear and Generalized Linear Models • eflm
…
You can install the released version of eflm from CRAN with:

install.packages("eflm")

And the development version with:

remotes::install_github("pachamaltese/eflm")

Benchmarks

Let’s fit two computationally demanding models from Yotov, et al. (2016).

The dataset for the benchmark was also taken from Yotov, et al. and consists in a 28,152 x 8 data frame with 6 numeric and 2 categorical columns:

# A tibble: 28,152 x 8
    year  trade   dist  cntg  lang  clny exp_year imp_year
   <int>  <dbl>  <dbl> <int> <int> <int> <chr>    <chr>   
 1  1986  27.8  12045.     0     0     0 ARG1986  AUS1986 
 2  1986   3.56 11751.     0     0     0 ARG1986  AUT1986 
 3  1986  96.1  11305.     0     0     0 ARG1986  BEL1986 
 4  1986   3.13 12116.     0     0     0 ARG1986  BGR1986 
 5  1986  52.7   1866.     1     1     0 ARG1986  BOL1986 
 6  1986 405.    2392.     1     0     0 ARG1986  BRA1986 
 7  1986  48.3   9391.     0     0     0 ARG1986  CAN1986 
 8  1986  23.6  11233.     0     0     0 ARG1986  CHE1986 
 9  1986 109.    1157.     1     1     0 ARG1986  CHL1986 
10  1986 161.   19110.     0     0     0 ARG1986  CHN1986 
# … with 28,142 more rows
…
